…
    ## [1] "The gain of the op amp is 26"

### Results

#### Load Data

``` r
df_bp_raw
```

    ## # A tibble: 1,500 × 4
    ##       t1   ch1    t2   ch2
    ##    <dbl> <dbl> <dbl> <dbl>
    ##  1 -37.5  5.01 -37.5  5.04
    ##  2 -37.4  5.02 -37.4  5.04
    ##  3 -37.4  5.01 -37.4  5.05
    ##  4 -37.3  5.00 -37.3  5.05
    ##  5 -37.3  4.99 -37.3  5.04
    ##  6 -37.2  5.00 -37.2  4.57
    ##  7 -37.2  5.00 -37.2  3.99
    ##  8 -37.1  5.00 -37.1  3.48
    ##  9 -37.1  5.02 -37.1  3.05
    ## 10 -37.0  5.00 -37.0  2.65
    ## # … with 1,490 more rows
…
